{
    "name": "MainControls",
    "maps": [
        {
            "name": "FreeFlyCamera",
            "id": "78704161-e424-4623-a51e-ff88f346c99a",
            "actions": [
                {
                    "name": "Forward",
                    "type": "Button",
                    "id": "3bb08206-c3cc-4fb4-bd28-c4db9ff0ea22",
                    "expectedControlType": "Button",
                    "processors": "",
                    "interactions": ""
                },
                {
                    "name": "Backward",
                    "type": "Button",
                    "id": "044a2729-ed73-45b8-b5ab-57a83159d611",
                    "expectedControlType": "Button",
                    "processors": "",
                    "interactions": ""
                },
                {
                    "name": "Left",
                    "type": "Button",
                    "id": "beb76abf-8d68-4fac-b78f-9ec80e122455",
                    "expectedControlType": "Button",
                    "processors": "",
                    "interactions": ""
                },
                {
                    "name": "Right",
                    "type": "Button",
                    "id": "f65b4674-9bc4-4cea-b869-8f5c13f97e05",
                    "expectedControlType": "Button",
                    "processors": "",
                    "interactions": ""
                },
                {
                    "name": "Up",
                    "type": "Button",
                    "id": "37e85b13-1420-4c37-b99c-10a5130c0a4f",
                    "expectedControlType": "Button",
                    "processors": "",
                    "interactions": ""
                },
                {
                    "name": "Down",
                    "type": "Button",
                    "id": "01b5069f-29e1-4ba9-a9e9-7a35ea12eb48",
                    "expectedControlType": "Button",
                    "processors": "",
                    "interactions": ""
                },
                {
                    "name": "ViewRotation",
                    "type": "Value",
                    "id": "95fb1606-33d8-45e9-8ad0-1344e05acde7",
                    "expectedControlType": "Vector2",
                    "processors": "",
                    "interactions": ""
                }
            ],
            "bindings": [
                {
                    "name": "",
                    "id": "c573eb53-727a-4cbb-9121-830822a32616",
                    "path": "<Keyboard>/w",
                    "interactions": "",
                    "processors": "",
                    "groups": "",
                    "action": "Forward",
                    "isComposite": false,
                    "isPartOfComposite": false
                },
                {
                    "name": "",
                    "id": "806426dd-aea1-4c18-a85d-63702c752b5a",
                    "path": "<Keyboard>/s",
                    "interactions": "",
                    "processors": "",
                    "groups": "",
                    "action": "Backward",
                    "isComposite": false,
                    "isPartOfComposite": false
                },
                {
                    "name": "",
                    "id": "d66b79df-1e0e-4027-9c99-639f153c8158",
                    "path": "<Keyboard>/a",
                    "interactions": "",
                    "processors": "",
                    "groups": "",
                    "action": "Left",
                    "isComposite": false,
                    "isPartOfComposite": false
                },
                {
                    "name": "",
                    "id": "cfea7817-9c8f-4821-a3e0-fa8b7c786526",
                    "path": "<Keyboard>/d",
                    "interactions": "",
                    "processors": "",
                    "groups": "",
                    "action": "Right",
                    "isComposite": false,
                    "isPartOfComposite": false
                },
                {
                    "name": "",
                    "id": "32ffe8c0-441b-4f6b-b6c1-88bb4c52e2a1",
                    "path": "<Keyboard>/e",
                    "interactions": "",
                    "processors": "",
                    "groups": "",
                    "action": "Up",
                    "isComposite": false,
                    "isPartOfComposite": false
                },
                {
                    "name": "",
                    "id": "fda8b86c-1fe7-4033-8f06-ba421ee4518d",
                    "path": "<Keyboard>/q",
                    "interactions": "",
                    "processors": "",
                    "groups": "",
                    "action": "Down",
                    "isComposite": false,
                    "isPartOfComposite": false
                },
                {
                    "name": "",
                    "id": "aea7b777-428b-40b7-98a1-57bf7c3c2fa2",
                    "path": "<Mouse>/delta",
                    "interactions": "",
                    "processors": "",
                    "groups": "",
                    "action": "ViewRotation",
                    "isComposite": false,
                    "isPartOfComposite": false
                }
            ]
        },
        {
            "name": "Player",
            "id": "e3421fa4-9c85-4359-b7f6-42d72b9b4c4b",
            "actions": [
                {
                    "name": "MoveX",
                    "type": "Value",
                    "id": "c4f86671-f166-4289-bc99-c7558e6d62ec",
                    "expectedControlType": "Axis",
                    "processors": "",
                    "interactions": ""
                },
                {
                    "name": "MoveY",
                    "type": "Value",
                    "id": "a914d688-a38a-4219-800e-496e60103469",
                    "expectedControlType": "Axis",
                    "processors": "",
                    "interactions": ""
                },
                {
                    "name": "Jump",
                    "type": "Button",
                    "id": "c161e4a7-f2f7-4266-b99c-69d7802fdf92",
                    "expectedControlType": "Button",
                    "processors": "",
                    "interactions": ""
                },
                {
                    "name": "Fire",
                    "type": "Button",
                    "id": "5c6ad428-9425-4e4a-ba09-922200e80615",
                    "expectedControlType": "Button",
                    "processors": "",
                    "interactions": ""
                },
                {
                    "name": "MousePosition",
                    "type": "Value",
                    "id": "e1b9e2fb-2aca-425e-9c34-15ee7e2e4145",
                    "expectedControlType": "Vector2",
                    "processors": "",
                    "interactions": ""
                },
                {
                    "name": "Run",
                    "type": "Button",
                    "id": "2203e16d-3c25-4d01-876f-3d55c1155ad0",
                    "expectedControlType": "Button",
                    "processors": "",
                    "interactions": ""
                }
            ],
            "bindings": [
                {
                    "name": "",
                    "id": "f7449443-dbdf-4fcb-98a9-aa075d3a13a1",
                    "path": "<Keyboard>/w",
                    "interactions": "",
                    "processors": "Scale",
                    "groups": "",
                    "action": "MoveY",
                    "isComposite": false,
                    "isPartOfComposite": false
                },
                {
                    "name": "",
                    "id": "27c73908-ac86-40b6-97cb-59a27a4ae687",
                    "path": "<Keyboard>/s",
                    "interactions": "",
                    "processors": "Scale(factor=-1)",
                    "groups": "",
                    "action": "MoveY",
                    "isComposite": false,
                    "isPartOfComposite": false
                },
                {
                    "name": "",
                    "id": "857b7fca-400c-47b6-8151-23f492d79b3e",
                    "path": "<Keyboard>/a",
                    "interactions": "",
                    "processors": "Scale(factor=-1)",
                    "groups": "",
                    "action": "MoveX",
                    "isComposite": false,
                    "isPartOfComposite": false
                },
                {
                    "name": "",
                    "id": "19239579-c3c0-4297-b170-95d00bb5c12b",
                    "path": "<Keyboard>/d",
                    "interactions": "",
                    "processors": "Scale",
                    "groups": "",
                    "action": "MoveX",
                    "isComposite": false,
                    "isPartOfComposite": false
                },
                {
                    "name": "",
                    "id": "6eeb8703-d1aa-4a82-8554-23d14508cf17",
                    "path": "<Keyboard>/space",
                    "interactions": "",
                    "processors": "",
                    "groups": "",
                    "action": "Jump",
                    "isComposite": false,
                    "isPartOfComposite": false
                },
                {
                    "name": "",
                    "id": "df62f8bc-117e-45ee-b651-2b48100d074f",
                    "path": "<Mouse>/leftButton",
                    "interactions": "",
                    "processors": "",
                    "groups": "",
                    "action": "Fire",
                    "isComposite": false,
                    "isPartOfComposite": false
                },
                {
                    "name": "",
                    "id": "10277065-8836-4c24-9620-0b7f294f9c60",
                    "path": "<Mouse>/position",
                    "interactions": "",
                    "processors": "",
                    "groups": "",
                    "action": "MousePosition",
                    "isComposite": false,
                    "isPartOfComposite": false
                },
                {
                    "name": "",
                    "id": "3789010d-d273-4c43-829c-8ce57526e3de",
                    "path": "<Keyboard>/shift",
                    "interactions": "",
                    "processors": "",
                    "groups": "",
                    "action": "Run",
                    "isComposite": false,
                    "isPartOfComposite": false
                }
            ]
        }
    ],
    "controlSchemes": []
}